<svg width="119" height="104" viewBox="0 0 119 104" fill="none" xmlns="http://www.w3.org/2000/svg">
<path d="M79.0634 3.52925C79.6473 2.25004 80.7362 1.88924 81.6415 1.84988C83.0191 1.78428 84.4623 2.73549 85.8203 3.85725C86.7846 4.94622 87.9392 5.7859 89.2774 6.3763C90.2024 6.7043 91.1208 6.7699 92.0523 6.72398C93.3643 6.65838 94.696 6.36974 96.0145 6.30414L96.0867 6.29758L96.6837 6.2451C98.1925 6.17294 99.616 6.52718 100.967 7.30783C102.207 8.43615 102.752 9.84 102.581 11.5325C102.292 12.9298 102.542 14.209 103.322 15.3701C104.667 16.3147 106.078 17.1413 107.56 17.8432C109.095 18.6829 110.06 19.949 110.479 21.6349C110.63 23.4193 109.804 24.5607 108.019 25.0527C105.697 25.6365 102.575 25.6365 99.944 27.6702C96.0998 30.878 94.8928 34.1121 93.22 34.6041C92.4 33.6726 87.2831 29.7169 78.7026 27.821C77.1676 22.5271 76.2361 9.74816 79.0634 3.52925Z" fill="#FCC21B"/>
<path d="M87.7228 26.6927C89.2316 23.6751 93.5284 18.368 94.5583 19.4176C95.5751 20.559 93.2332 26.4893 91.5866 29.3954C91.0028 28.7788 89.1201 27.4864 88.3001 27.27" fill="#D19B15"/>
<path d="M95.3126 36.3557C94.427 36.3557 93.5611 35.903 93.0691 35.0896C88.5558 27.6636 78.3353 28.4443 78.2369 28.4574C76.7937 28.5755 75.521 27.5127 75.3964 26.0761C75.3354 25.385 75.5502 24.6979 75.9938 24.1646C76.4374 23.6312 77.074 23.2949 77.7646 23.229C78.3156 23.1766 91.3242 22.1073 97.5562 32.3737C98.3106 33.6136 97.9104 35.2273 96.6771 35.9752C96.2442 36.231 95.7784 36.3557 95.3126 36.3557Z" fill="#8D6E63"/>
<path d="M97.1888 80.0783C85.9515 82.8467 70.332 82.6499 59.1734 80.4457C48.7299 78.3793 40.7332 72.2194 41.6516 60.0965C42.5831 47.8292 50.711 36.277 61.8893 31.1864C72.7068 26.2599 87.2241 23.8589 94.8731 35.0372C96.7755 37.8186 100.41 43.9916 100.58 47.0223C100.593 47.2651 100.607 47.4815 100.659 47.6915C100.672 48.4524 100.98 49.22 101.728 49.7841C106.537 53.4249 110.04 58.2531 110.683 64.8722C111.444 72.7639 103.978 78.4055 97.1888 80.0783Z" fill="#FCC21B"/>
<path d="M87.224 59.7816C85.8595 57.5643 83.3471 55.1567 80.9723 53.0903L82.8157 47.9866C84.4557 49.2658 85.8989 50.4663 87.0272 51.5028C87.2109 51.6799 87.4996 51.6931 87.7095 51.5422L91.9341 48.3999C92.0522 48.3081 92.1244 48.1769 92.1441 48.026C92.1511 47.9523 92.1424 47.878 92.1187 47.8079C92.0949 47.7378 92.0566 47.6735 92.0063 47.6193C90.7533 46.222 88.0375 43.7751 85.0658 41.7612L86.1482 38.7698C86.2728 38.4287 86.1023 38.0548 85.7546 37.9236L80.7886 36.1261C80.4475 36.0015 80.067 36.1786 79.9424 36.5197L79.1355 38.7567C74.4582 37.3069 70.7452 37.7727 67.8326 40.2064C65.5497 42.122 64.5657 44.8575 65.2611 47.3372C65.9695 49.9809 68.0425 51.7915 70.6665 54.0809L71.0011 54.3761C71.6112 54.9009 72.2606 55.4454 72.8969 55.9899L70.6534 62.1957C67.7079 60.267 65.2414 57.5971 64.8215 57.0132C64.7429 56.9048 64.626 56.8302 64.4945 56.8047C64.3629 56.7791 64.2266 56.8044 64.1131 56.8755L59.2455 59.9849C59.1274 60.0571 59.0422 60.1817 59.0094 60.326C58.9831 60.4638 59.0094 60.6081 59.0881 60.7262C60.551 62.9304 62.9454 65.3969 65.4972 67.3256C66.1073 67.7848 67.0257 68.4277 68.154 69.1034L67.3078 71.4322C67.1897 71.7733 67.3603 72.1472 67.7014 72.2719L72.6739 74.0759C73.015 74.2005 73.3955 74.0234 73.5201 73.6823L74.2221 71.7405C78.7616 72.9738 82.7501 72.2587 85.8333 69.6216C88.8116 67.0698 89.3232 63.488 87.224 59.7816ZM76.9313 44.8706L75.5734 48.6295C74.3073 47.6455 73.6317 46.9042 74.1105 45.8415C74.6091 44.7525 75.8489 44.6804 76.9313 44.8706ZM78.2762 60.5491C79.1486 61.3953 79.7653 62.176 79.8243 62.891C79.8506 63.2977 79.6997 63.6913 79.3454 64.0981C78.7288 64.8131 77.7448 64.9509 76.728 64.8262L78.2762 60.5491Z" fill="#424242"/>
<g clip-path="url(#clip0)">
<path d="M70.0245 81.0606C70.0245 96.9359 57.3164 96.9359 41.496 96.9359C25.6757 96.9359 12.9675 96.9359 12.9675 81.0606C12.9675 65.1854 25.8054 39.2076 41.496 39.2076C57.1867 39.2076 70.0245 65.0542 70.0245 81.0606Z" fill="#DBB471"/>
<path opacity="0.5" d="M70.0244 81.0606C70.0244 75.6814 68.598 69.1214 66.0045 62.8237C66.5232 66.8909 65.4858 74.107 53.1667 76.8622C35.6606 80.667 44.7378 85.6526 37.865 86.3086C32.0297 86.8334 16.4687 84.4718 13.3565 75.5502C13.0971 77.5182 12.8378 79.355 12.8378 81.1918C12.9674 96.9359 25.8053 96.9359 41.4959 96.9359C57.1866 96.9359 70.0244 96.9359 70.0244 81.0606Z" fill="#89664C"/>
<path d="M49.1469 73.4509C48.6282 70.8269 46.4237 70.0397 44.0895 69.9085V66.2349C44.7379 66.4973 45.516 66.8909 46.0347 67.2845C47.0721 67.9405 48.1095 66.2349 47.0721 65.5789C46.1643 65.0541 45.1269 64.5293 44.0895 64.1357V59.8061C44.0895 58.4941 42.1444 58.4941 42.1444 59.8061V63.6109C41.107 63.4797 40.0696 63.4797 39.0322 63.6109C38.9025 62.6925 38.6432 61.7741 38.3838 60.8557C38.1245 59.5437 36.1794 60.0685 36.5684 61.3805C36.8277 62.2989 36.9574 63.2173 37.2168 64.1357C37.0871 64.1357 37.0871 64.1357 36.9574 64.2669C34.3639 65.3165 32.6781 67.9405 34.6233 70.4333C35.531 71.6141 36.698 72.0077 37.9948 72.2701C38.1245 73.9757 38.1245 75.6813 38.1245 77.387C37.2168 76.8622 36.4387 76.075 35.7903 75.4189C34.8826 74.5005 33.5858 75.9438 34.3639 76.8622C35.531 78.1742 36.8277 79.0926 38.1245 79.7486C38.1245 81.1918 38.2542 82.635 38.3838 84.0782C38.5135 85.3902 40.4586 85.3902 40.329 84.0782C40.1993 82.7662 40.0696 81.5854 40.0696 80.2734C40.8477 80.4046 41.6257 80.4046 42.4038 80.4046C42.5334 81.7166 42.6631 83.0286 42.7928 84.4718C42.9225 85.7838 44.8676 85.7838 44.7379 84.4718C44.6082 83.0286 44.4786 81.5854 44.3489 80.011C47.2017 78.9614 49.7952 76.731 49.1469 73.4509ZM42.1444 65.5789V69.9085C41.496 69.9085 40.9773 70.0397 40.4586 70.0397H39.8103L39.4212 65.3165C40.329 65.3165 41.2367 65.4477 42.1444 65.5789ZM37.4761 69.7773C36.9574 69.6461 36.4387 69.2525 35.92 68.8589C34.7529 67.6781 36.4387 66.6285 37.4761 66.1037C37.6058 67.4157 37.7355 68.5965 37.8651 69.9085C37.7355 69.9085 37.6058 69.9085 37.4761 69.7773ZM41.7554 78.1742C41.107 78.3054 40.5883 78.1742 40.0696 78.043C39.9399 76.075 39.9399 74.1069 39.9399 72.0077C40.718 72.0077 41.496 71.8765 42.2741 71.8765C42.2741 73.9757 42.4038 75.9438 42.4038 78.043C42.1444 78.1742 42.0147 78.1742 41.7554 78.1742ZM46.0347 76.731C45.516 77.1246 44.8676 77.387 44.3489 77.6494C44.2192 75.6814 44.2192 73.8445 44.2192 71.8765H44.8676C47.3314 72.4013 47.9798 75.1565 46.0347 76.731Z" fill="#89664C"/>
<path d="M44.0897 91.6878H41.1072V96.9359L53.1669 103.496L80.3987 94.9678V90.3758L70.4137 84.4718L44.0897 91.6878Z" fill="#699635"/>
<path d="M41.496 88.6702C41.496 88.6702 44.6082 93.787 53.4261 98.2478C53.4261 98.2478 67.1716 97.5918 80.3985 88.6702C80.3985 88.6702 72.7477 84.8654 70.5432 79.8798C70.5432 79.8798 65.3562 87.227 41.496 88.6702Z" fill="#83BF4F"/>
<path d="M35.6606 91.5567L38.5134 91.4255L38.9025 96.2799L27.6207 103.496L0.518664 97.5919L0.129639 93.2623L9.33656 86.8334L35.6606 91.5567Z" fill="#699635"/>
<path d="M37.8651 88.539C37.8651 88.539 35.1419 93.6558 26.9724 98.5103C26.9724 98.5103 13.6159 98.9039 0 91.6878C0 91.6878 7.2618 87.4894 8.94757 82.5038C8.94757 82.5038 14.6533 89.0638 37.8651 88.539Z" fill="#83BF4F"/>
<path d="M31.3812 89.9822C31.3812 89.9822 30.9922 91.0318 32.8076 91.163L28.0096 95.2302C28.0096 95.2302 25.1568 94.9678 24.5084 96.9358C24.5084 96.9358 12.8377 95.6238 5.31652 92.2126C5.31652 92.2126 6.87262 91.0318 4.92749 90.2446C4.92749 90.2446 7.13197 88.6702 7.65067 87.227C7.65067 87.227 9.72546 87.4894 10.3738 85.915C10.6332 85.7838 18.4137 90.507 31.3812 89.9822V89.9822Z" stroke="#699635" stroke-width="0.25" stroke-miterlimit="10"/>
<path d="M11.4113 91.819C12.7721 91.819 13.8752 91.0554 13.8752 90.1134C13.8752 89.1715 12.7721 88.4078 11.4113 88.4078C10.0506 88.4078 8.94751 89.1715 8.94751 90.1134C8.94751 91.0554 10.0506 91.819 11.4113 91.819Z" fill="#699635"/>
<path d="M24.638 88.0141C24.638 88.0141 21.6555 91.9501 15.1718 97.3294L15.5608 100.872L11.0222 99.8222L10.7628 96.0174C10.7628 96.0174 17.3762 89.8509 18.8027 86.8333C18.673 86.8333 21.0071 87.6205 24.638 88.0141Z" fill="#F9F3D9"/>
<path d="M54.5928 87.0958C54.5928 87.0958 55.7598 90.2446 64.5777 96.0174V99.8223L69.6351 98.2478V94.3118C69.6351 94.3118 63.5403 89.9822 59.9094 85.6526L54.5928 87.0958Z" fill="#F9F3D9"/>
<path d="M47.2017 82.8975L44.3488 82.7663L44.0895 88.1455L55.6306 95.624L82.7326 88.1455L82.8623 83.4223L73.396 76.7311L47.2017 82.8975Z" fill="#699635"/>
<path d="M44.8676 79.6174C44.8676 79.6174 47.7204 85.1278 56.1493 90.1134C56.1493 90.1134 69.6355 90.1134 82.992 81.7166C82.992 81.7166 75.6005 77.387 73.7851 72.0078C73.7851 72.0078 68.2091 79.355 44.8676 79.6174Z" fill="#83BF4F"/>
<path d="M50.7029 81.0607C50.7029 81.0607 51.3513 82.1103 49.2765 82.5039L54.7228 86.8335C54.7228 86.8335 57.835 86.0463 58.8724 87.8831C58.8724 87.8831 71.8399 85.5215 77.805 82.3727C77.805 82.3727 75.8599 81.4543 77.805 80.2735C77.805 80.2735 75.4708 78.3055 74.5631 76.9935C74.5631 76.9935 72.3586 77.6495 71.1916 76.0751C71.1916 76.2063 66.5233 80.4047 50.7029 81.0607V81.0607Z" stroke="#699635" stroke-width="0.25" stroke-miterlimit="10"/>
<path d="M60.6878 84.3406C60.1691 84.9966 58.4833 85.259 57.0569 84.8654C55.6305 84.4718 54.9821 83.5534 55.5008 82.8974C56.0195 82.2414 57.7053 81.979 59.1317 82.3726C60.5581 82.7662 61.2065 83.5534 60.6878 84.3406Z" fill="#699635"/>
<path d="M58.0942 78.5677C58.0942 78.5677 61.2064 82.7661 67.8199 88.4078L67.6902 92.3438L72.2288 91.0318L72.3585 86.8333C72.3585 86.8333 65.6154 80.2733 63.9296 77.1245C64.0593 77.1245 61.8548 78.0429 58.0942 78.5677Z" fill="#F9F3D9"/>
<path d="M59.6506 22.1515C59.6506 30.1548 49.4062 43.1436 41.4961 43.1436C33.5859 43.1436 23.3416 31.4668 23.3416 23.4635C23.3416 15.4603 24.5086 23.4635 32.4188 23.4635C33.5859 23.4635 39.0322 19.5275 41.4961 19.5275C43.1818 19.5275 47.9798 23.4635 50.5733 23.4635C57.4461 23.4635 59.6506 16.1163 59.6506 22.1515Z" fill="#DBB471"/>
<path d="M39.1616 36.9773C38.3836 37.5021 34.623 37.1085 33.4559 38.0269C31.8998 39.2077 34.1043 41.9629 32.5482 43.6685C29.436 46.8173 26.9722 50.3597 27.7502 52.3277C29.047 55.7389 31.5108 46.0301 33.7153 49.7037C35.9198 53.3773 35.5307 47.2109 38.9023 50.3597C42.2738 53.5085 39.421 44.7181 42.6629 48.5229C45.9047 52.3277 46.0344 56.6573 48.3686 56.6573C51.0917 56.6573 45.5157 46.2925 49.1466 48.7853C52.7775 51.2781 56.7974 50.3597 53.1665 46.5549C51.9995 45.3741 50.4434 43.2749 48.6279 41.4381C47.9795 40.7821 48.4982 37.3709 47.8499 36.8461C47.0718 36.19 45.1267 38.2893 44.3486 37.8957C42.7925 37.1085 43.3112 38.5517 40.9771 38.9453C39.421 39.4701 40.7177 35.9276 39.1616 36.9773Z" fill="#89664C"/>
<path d="M24.2494 44.718C29.3067 39.8636 38.5136 42.6188 43.96 44.9804C49.2766 47.342 52.5185 39.8636 49.147 36.0588C47.2018 33.8284 44.0896 36.4524 42.9226 38.0268C41.6258 39.6012 40.5884 41.3068 39.162 42.8812C37.0872 45.2428 32.0299 43.2748 33.586 39.9948C35.2717 36.5836 42.4039 40.5196 44.738 41.1756C49.2766 42.4876 54.0746 43.0124 58.6132 41.3068C60.1693 40.782 59.521 38.158 57.9649 38.814C52.9075 40.6508 47.8502 39.47 43.0522 37.8956C40.5884 37.1084 36.6982 35.0092 34.1047 36.19C26.7132 39.7324 33.586 49.8349 39.8104 45.8988C41.2368 44.9804 42.1445 43.5372 43.1819 42.2252C43.8303 41.438 47.0722 36.4524 47.8502 38.9452C48.2392 40.2572 47.8502 42.6188 46.4238 43.0124C45.5161 43.406 43.7006 42.094 42.7929 41.8316C41.1071 41.1756 39.4213 40.6508 37.6059 40.2572C32.8079 39.2076 26.3242 39.47 22.5636 43.0124C21.2668 44.062 23.0823 45.8988 24.2494 44.718Z" fill="#E8E8E8"/>
<path d="M58.0943 20.1835C56.7976 21.2331 54.4634 23.4635 50.5732 23.4635C47.9797 23.4635 43.1817 19.5275 41.4959 19.5275C39.0321 19.5275 33.5858 23.4635 32.4187 23.4635C28.1394 23.4635 25.8053 21.2331 24.6382 20.3147C24.6382 20.3147 26.0646 26.2188 30.4736 29.2364C33.7154 31.3356 33.3264 28.8428 35.0122 26.4812C36.698 24.1195 37.865 22.9387 40.8476 28.8428C42.4037 32.1228 45.3862 19.9211 47.7203 23.8571C51.9996 31.0732 53.5557 27.1372 58.0943 20.1835Z" fill="#89664C"/>
<path d="M67.9496 88.2766L67.8199 92.2126L72.3586 90.9006L72.4883 86.7022C72.4883 86.8334 69.7651 87.883 67.9496 88.2766Z" fill="#DBB471"/>
<path d="M64.578 96.1487V99.9535L69.6353 98.3791V94.4431C69.5057 94.3119 68.2089 95.0991 64.578 96.1487Z" fill="#DBB471"/>
<path d="M15.1719 97.1983L15.561 100.872L11.0223 99.8223L10.763 96.0175C10.6333 96.0175 12.4488 96.6735 15.1719 97.1983Z" fill="#DBB471"/>
</g>
<defs>
<clipPath id="clip0">
<rect y="19.5275" width="82.992" height="83.9684" fill="white"/>
</clipPath>
</defs>
</svg>
